0.0;0.0;0.0
0.06375;0.7112250328063965;0.0
19.408975;3.359480857849121;0.0
22.132257;4.551960468292236;0.0
22.442873;5.462528705596924;0.0
23.819528;28.988727807998657;0.0
26.681695;32.96212863922119;0.0
27.132135;37.330337047576904;1.0
26.884393;39.812382221221924;1.0
27.058;41.66942286491394;1.0
26.836534;43.955713748931885;1.0
26.860933;44.38677716255188;1.0
26.839349;44.82671666145325;0.0
27.139642;47.81498908996582;1.0
26.955713;49.767449378967285;1.0
27.236299;52.56944227218628;1.0
26.92193;55.697649240493774;1.0
27.182809;58.347166299819946;1.0
27.128381;59.067121267318726;1.0
27.279466;60.55819916725159;0.0
27.742105;61.39385938644409;0.0
27.767442;61.90382766723633;0.0
27.955125;62.414870738983154;0.0
28.777177;62.89484119415283;0.0
31.233011;63.407623291015625;0.0
82.129852;67.0153796672821;0.0
88.685623;68.03775954246521;0.0
90.264976;68.8087785243988;0.0
90.4048;69.33018183708191;0.0
90.433891;69.88014793395996;0.0
90.675064;70.40932130813599;0.0
90.767967;71.4748706817627;1.0
90.358818;75.46131801605225;1.0
90.392601;76.02243614196777;1.0
90.356941;76.58561825752258;0.0
90.400108;77.20682668685913;1.0
90.364448;77.7668342590332;1.0
90.401985;78.35818696022034;1.0
90.36351;78.93814992904663;0.0
90.401046;79.5292055606842;1.0
90.355064;80.2019374370575;0.0
90.395416;80.81190156936646;0.0
90.353187;81.4372615814209;0.0
90.496765;82.98805594444275;1.0
90.454536;83.58084034919739;0.0
90.498641;84.20211791992188;0.0
90.456413;84.81208181381226;0.0
90.496765;85.42219948768616;0.0
90.450782;86.06215929985046;0.0
90.496765;86.70544958114624;0.0
90.355064;88.24123477935791;1.0
90.399169;88.8811948299408;0.0
90.353187;89.52224278450012;0.0
90.620635;92.21064400672913;1.0
90.569023;92.94172978401184;1.0
90.621574;93.63280248641968;0.0
90.488319;95.0918607711792;1.0
90.548377;95.90406656265259;0.0
90.412307;97.37826418876648;1.0
90.585914;99.23943638801575;1.0
90.531486;99.975900888443;0.0
90.585914;100.71251511573792;1.0
90.472366;101.9846510887146;1.0
90.526794;102.69570660591125;0.0
90.473304;103.42678880691528;0.0
90.591545;104.73913621902466;1.0
90.531486;105.51338529586792;1.0
90.586853;106.26472568511963;0.0
90.431076;107.93072652816772;1.0
90.589668;109.59308671951294;1.0
90.519287;110.47415685653687;0.0
90.644096;111.87969374656677;1.0
90.583099;112.67078733444214;1.0
90.645034;113.5018789768219;0.0
90.407615;115.92671990394592;1.0
90.470489;116.71586108207703;1.0
90.41043;117.4868950843811;1.0
90.527732;118.77805948257446;1.0
90.467674;119.60039281845093;0.0
90.591545;120.94553685188293;1.0
90.529609;121.75866556167603;1.0
90.604682;122.66967916488647;1.0
90.467674;124.17330002784729;1.0
90.595298;125.56720542907715;1.0
90.531486;126.4026346206665;1.0
90.598114;127.23491072654724;0.0
90.367263;129.61852931976318;1.0
90.57653;131.61456179618835;0.0
91.214653;132.67565369606018;0.0
91.298171;133.55670070648193;0.0
93.301689;134.437762260437;0.0
99.529014;135.39794993400574;0.0
109.867538;136.28036761283875;0.0
116.441139;137.17695355415344;0.0
137.721664;138.78810620307922;0.0
144.304183;139.83524441719055;0.0
146.266281;140.74784469604492;0.0
146.592987;141.66092920303345;0.0
147.124465;142.5720090866089;0.0
147.197998;143.51304817199707;0.0
146.208572;152.89080548286438;1.0
146.465469;155.52106261253357;1.0
146.155517;158.6129388809204;1.0
146.533416;162.35887813568115;1.0
146.219741;165.49376773834229;1.0
146.500839;168.32444548606873;1.0
146.229049;171.04335045814514;1.0
146.50177;173.83053040504456;1.0
146.195541;176.87629985809326;1.0
146.539001;180.30203080177307;1.0
146.213226;183.55389666557312;1.0
146.376113;185.2636160850525;1.0
146.119216;187.88293886184692;1.0
146.437545;191.05311608314514;1.0
146.18251;193.66390013694763;1.0
146.484085;196.68923568725586;1.0
146.202056;199.51264023780823;1.0
146.477569;202.29072523117065;1.0
146.19461;205.17264890670776;1.0
146.4785;208.02950477600098;1.0
146.195541;210.8929295539856;1.0
146.453369;213.48110270500183;1.0
146.09967;216.9704887866974;1.0
146.309097;219.07280564308167;0.0
146.943893;220.1225380897522;0.0
147.081649;221.20378637313843;0.0
153.907104;222.2570538520813;0.0
167.365341;223.3581838607788;0.0
175.872726;224.4855020046234;0.0
189.31607;225.5825719833374;0.0
197.052764;226.7656192779541;0.0
199.515625;227.87772130966187;0.0
199.58078;229.01390671730042;0.0
200.207199;230.04989171028137;0.0
199.513763;231.19347667694092;0.0
199.357391;233.97496104240417;0.0
197.102096;237.14044880867004;0.0
196.994125;238.37763690948486;0.0
197.503265;243.31053805351257;1.0
197.227752;246.0729525089264;1.0
197.491165;248.73380827903748;1.0
197.28453;250.86200332641602;1.0
197.641952;254.38197708129883;1.0
197.342239;257.3789451122284;1.0
197.627059;260.2631356716156;1.0
197.346893;263.0734007358551;1.0
197.626129;265.8933651447296;1.0
197.298492;269.18668007850647;1.0
197.646606;272.6192190647125;1.0
197.341308;275.7045612335205;1.0
197.599136;278.3200857639313;1.0
197.328277;281.0371251106262;1.0
197.605651;283.82295179367065;1.0
197.298492;286.8818793296814;1.0
197.515365;289.12331986427307;1.0
0.0;322.8495788574219;0.0
