0.0;0.0;0.0
0.109687;0.7135739326477051;0.0
14.338124;2.8434231281280518;0.0
14.922186;3.8433520793914795;0.0
15.020625;4.9632728099823;0.0
15.035624;5.723221063613892;0.0
15.179061;8.494381666183472;0.0
15.318749;11.854143619537354;1.0
15.266249;13.474028825759888;1.0
15.292499;14.723940134048462;0.0
15.313124;15.763866186141968;0.0
15.444375;18.820324420928955;1.0
15.375937;20.760185718536377;1.0
15.404062;21.78011393547058;0.0
15.456562;23.331610202789307;0.0
15.494999;24.581521034240723;1.0
15.412499;26.74136781692505;1.0
15.429374;27.81129240989685;0.0
15.488436;29.48117470741272;0.0
15.523124;30.761083841323853;1.0
15.446249;33.003063440322876;1.0
15.464061;34.182979583740234;0.0
15.644999;37.012779235839844;0.0
15.662812;37.99441862106323;0.0
15.631875;39.464314222335815;1.0
15.736874;41.934139251708984;1.0
15.629999;44.84510397911072;0.0
15.649686;46.07501482963562;0.0
15.755624;48.064873695373535;0.0
15.774374;48.95480990409851;0.0
15.672186;51.484631299972534;1.0
15.692811;52.38456678390503;0.0
15.768749;54.12594509124756;0.0
15.788436;55.40585446357727;0.0
15.689999;58.115663290023804;1.0
15.712499;59.285539865493774;0.0
15.751874;60.65548253059387;0.0
15.790311;62.01284694671631;1.0
15.698436;64.29268550872803;0.0
15.722811;65.50260066986084;0.0
15.770624;66.90250039100647;0.0
15.796875;68.19240951538086;1.0
15.714374;70.29226016998291;1.0
15.740624;71.54217195510864;0.0
15.802499;72.85207891464233;0.0
15.826874;74.11198949813843;0.0
15.754687;76.36183023452759;1.0
15.779999;77.75472402572632;0.0
15.824999;79.09692859649658;0.0
15.850312;80.37683844566345;1.0
15.75;82.75826835632324;1.0
15.778124;83.78823471069336;0.0
15.858749;85.34812521934509;0.0
15.894374;86.85801529884338;0.0
15.926249;87.4779736995697;0.0
15.847499;89.3489921092987;0.0
15.823124;90.63887071609497;0.0
15.852187;91.76878952980042;0.0
15.892499;92.90288090705872;0.0
15.919687;94.22278714179993;0.0
15.824999;96.5426230430603;0.0
15.854999;97.61254739761353;0.0
15.906561;98.88867950439453;0.0
15.935625;100.32857871055603;0.0
15.903749;101.67848181724548;0.0
15.860624;102.85839772224426;0.0
15.824062;104.44828510284424;0.0
15.786561;105.14823579788208;0.0
15.832499;106.61813163757324;0.0
15.868124;108.13965821266174;0.0
15.914999;109.25957894325256;0.0
15.944062;110.49949097633362;0.0
15.910311;111.96938705444336;0.0
15.860624;113.51927757263184;1.0
15.825937;114.65919637680054;0.0
15.784687;115.43914151191711;0.0
15.833436;116.66905355453491;0.0
15.869999;117.82897186279297;0.0
15.925312;119.1588773727417;1.0
15.959062;120.59877514839172;0.0
15.924374;122.03867411613464;1.0
16.014373;124.23232221603394;1.0
15.975936;125.54223036766052;0.0
15.924374;127.07212114334106;0.0
15.885936;128.55113625526428;0.0
15.839061;129.36107802391052;0.0
15.986249;132.18087887763977;0.0
16.030311;133.8518466949463;0.0
16.078123;134.69179439544678;0.0
15.96;136.71165108680725;0.0
15.920624;138.0515558719635;0.0
15.870937;138.9414575099945;0.0
15.928124;140.18140482902527;0.0
15.970312;141.80128979682922;0.0
16.010623;143.19119119644165;0.0
15.917812;145.4510314464569;1.0
15.964687;146.81093549728394;0.0
16.023748;148.0924687385559;0.0
16.065937;149.77234983444214;0.0
16.117498;150.65228724479675;0.0
15.994687;152.75213861465454;0.0
15.951561;154.16178274154663;0.0
15.897187;155.08171772956848;0.0
16.021873;157.57152676582336;0.0
16.063123;159.23142337799072;0.0
15.934686;162.4012005329132;1.0
15.979686;164.1312334537506;0.0
16.044374;165.7411186695099;0.0
16.086561;167.22101378440857;0.0
15.986249;169.8619954586029;1.0
16.032186;171.46188259124756;0.0
16.09781;172.91318488121033;0.0
16.144685;174.53307104110718;0.0
16.209373;175.5929946899414;0.0
16.09781;177.5228579044342;0.0
16.049999;179.27273416519165;0.0
15.990937;180.28265953063965;0.0
16.130622;182.98407459259033;0.0
16.174686;184.39157032966614;0.0
16.071561;187.09137773513794;1.0
16.124998;188.95124626159668;0.0
16.194374;190.71112084388733;0.0
16.237499;191.7710461616516;0.0
16.18781;193.3109302520752;0.0
16.117498;195.0708122253418;0.0
16.073436;196.11073851585388;0.0
16.124998;197.9270088672638;0.0
16.204685;199.8168749809265;0.0
16.250623;200.89679861068726;0.0
16.19906;202.60667729377747;0.0
16.124998;204.18656611442566;0.0
16.072498;206.07643127441406;0.0
16.004999;207.14635586738586;0.0
16.149374;209.93615746498108;0.0
16.207498;211.90601801872253;0.0
16.275936;213.02729868888855;0.0
16.19906;214.94716334342957;0.0
16.144685;216.86136317253113;0.0
16.073436;218.0176248550415;0.0
16.190624;220.27746415138245;0.0
16.244998;222.17732977867126;0.0
16.322811;223.42839169502258;0.0
16.215936;225.66823196411133;0.0
16.159687;227.20812463760376;0.0
16.088436;228.36919331550598;0.0
16.223436;230.72902584075928;0.0
16.28156;232.54889678955078;0.0
16.362186;233.81880688667297;0.0
16.259061;236.05864810943604;0.0
16.200935;237.8785207271576;0.0
16.126873;239.08008098602295;0.0
16.235624;241.39987301826477;0.0
16.312498;243.4011881351471;0.0
16.442811;245.32105231285095;0.0
16.298435;247.69017696380615;0.0
16.209373;249.93126440048218;0.0
16.088436;251.71113848686218;0.0
16.215936;254.2021667957306;0.0
16.28906;256.1920373439789;0.0
16.201873;258.43306946754456;0.0
16.29656;260.8329017162323;1.0
16.198123;263.18394351005554;1.0
16.261873;264.86386823654175;0.0
16.34531;266.9137225151062;0.0
16.259061;268.64360094070435;0.0
16.192499;270.61346077919006;0.0
16.112812;271.87337160110474;0.0
16.204685;273.551424741745;0.0
16.270311;275.46128940582275;0.0
16.32656;276.7194857597351;0.0
16.221561;279.45929193496704;1.0
16.328435;282.0891056060791;1.0
16.216873;285.01030564308167;0.0
16.323749;287.82007336616516;1.0
16.229061;290.4610924720764;1.0
16.310623;292.8909285068512;1.0
16.24031;295.060772895813;0.0
16.327499;297.2106213569641;1.0
16.237499;299.75159215927124;1.0
16.308748;302.0114314556122;1.0
16.246873;304.092591047287;0.0
16.329374;306.1524453163147;0.0
16.226247;308.7001488208771;1.0
16.324686;311.4099555015564;1.0
16.246873;313.7716863155365;1.0
16.33031;315.85153889656067;1.0
16.230936;318.3229925632477;1.0
16.332185;320.8328146934509;1.0
16.241249;323.44424414634705;1.0
16.309686;325.6640865802765;1.0
16.231874;327.63394713401794;1.0
16.318122;330.0549921989441;1.0
16.249685;332.2448375225067;1.0
16.319061;334.3458330631256;0.0
16.229999;336.5456771850586;1.0
16.33406;338.9999351501465;1.0
16.243124;341.60975456237793;1.0
16.331249;343.7895927429199;1.0
16.242185;346.3094210624695;1.0
16.327499;348.4692680835724;1.0
16.237499;350.9390926361084;1.0
16.32656;353.2089319229126;1.0
16.245935;355.6487591266632;0.0
16.32656;357.75860953330994;0.0
16.243124;360.2194871902466;0.0
16.370624;363.4895977973938;0.0
16.580623;365.81943225860596;0.0
37.76062;369.5006606578827;0.0
41.591247;371.79049801826477;0.0
41.696247;373.34113001823425;0.0
41.578121;375.4709792137146;0.0
41.49562;377.6708233356476;0.0
41.422496;379.23071241378784;0.0
41.548122;382.48048162460327;1.0
41.452495;385.1434552669525;1.0
41.543434;387.3632981777191;1.0
41.458122;389.89311838150024;0.0
41.537807;392.1629571914673;0.0
41.458122;394.58394861221313;0.0
41.541557;397.00377655029297;0.0
41.448745;399.4947612285614;0.0
41.529373;401.9507520198822;0.0
41.449684;404.2305905818939;0.0
41.545307;406.5604250431061;1.0
41.436557;409.1015729904175;1.0
41.527496;411.72138714790344;1.0
41.445934;414.17255544662476;0.0
41.527496;416.6223795413971;0.0
41.443122;419.0122101306915;0.0
41.541557;421.4720356464386;1.0
41.452495;423.9344835281372;1.0
41.533123;426.2443199157715;0.0
41.441246;428.4857943058014;1.0
41.54906;431.0256142616272;1.0
41.437496;433.62059235572815;1.0
41.54906;436.2104082107544;1.0
41.452495;438.88161754608154;0.0
41.539684;441.1414575576782;1.0
41.442184;443.5726230144501;1.0
41.528434;446.052446603775;1.0
41.436557;448.7322566509247;1.0
41.523746;451.2420780658722;0.0
41.641872;453.0019533634186;0.0
41.464683;455.88174867630005;0.0
41.370933;458.36157298088074;0.0
41.250934;460.14144349098206;0.0
41.378433;462.68995571136475;0.0
41.463745;464.47982811927795;0.0
41.368122;466.8596589565277;0.0
41.241558;469.2806496620178;0.0
41.371871;471.8704659938812;0.0
41.458122;473.68151593208313;0.0
41.363433;476.03134870529175;0.0
41.234058;478.35276460647583;0.0
41.367183;480.5626072883606;0.0
41.460933;483.1537411212921;0.0
41.56031;485.0936031341553;0.0
41.458122;487.70341777801514;0.0
41.326869;490.18324160575867;0.0
41.461872;492.8430526256561;0.0
41.555622;494.7893249988556;0.0
41.459995;497.159157037735;0.0
41.326869;499.508989572525;0.0
41.46281;502.0088119506836;0.0
41.559371;504.00863909721375;0.0
41.46281;506.3985004425049;0.0
41.358745;509.0883102416992;0.0
41.220935;511.098167181015;0.0
41.360622;513.4979968070984;0.0
41.458122;516.1578085422516;0.0
41.55656;518.0776717662811;0.0
41.445934;520.7374827861786;0.0
41.307182;523.4386432170868;0.0
41.453433;525.9386477470398;0.0
41.54906;527.9085080623627;0.0
41.444057;530.4495468139648;0.0
41.301559;533.0593616962433;0.0
41.445934;535.8091661930084;0.0
41.546245;537.889018535614;0.0
41.444057;540.520028591156;0.0
41.301559;542.8998601436615;0.0
41.447807;545.6908175945282;0.0
41.54906;547.7806689739227;0.0
41.444995;550.4415996074677;0.0
41.305309;552.7914614677429;0.0
41.454372;555.468062877655;0.0
41.54906;557.4679203033447;0.0
41.446872;560.1129603385925;0.0
41.305309;562.4627928733826;0.0
41.457183;564.9437696933746;0.0
41.555622;566.9736249446869;0.0
41.453433;569.6944055557251;0.0
41.303432;572.5941996574402;0.0
41.450622;575.2452430725098;0.0
41.54906;577.2850985527039;0.0
41.440307;580.1760895252228;0.0
41.294998;583.0158877372742;0.0
41.444995;585.5369117259979;1.0
41.549995;588.2268981933594;0.0
41.662494;590.3867449760437;0.0
41.549995;593.2383518218994;0.0
41.40187;595.6881778240204;0.0
41.557495;598.5979707241058;0.0
41.404682;601.3177781105042;1.0
41.303432;603.4129130840302;1.0
41.415935;605.9927299022675;0.0
41.570621;608.8225288391113;0.0
41.67937;610.9523782730103;0.0
41.538745;613.983316898346;0.0
41.382183;616.543134689331;0.0
41.543434;619.1342797279358;0.0
41.65031;621.3241245746613;0.0
41.532184;624.4151976108551;0.0
41.371871;627.4249837398529;0.0
41.531246;630.3859162330627;0.0
41.362495;633.5073323249817;0.0
41.521869;636.3571302890778;0.0
41.36156;639.3180868625641;0.0
41.533123;642.0378940105438;0.0
41.641872;644.2977335453033;0.0
41.525623;647.3375177383423;0.0
41.356872;650.0557117462158;0.0
41.521869;653.1288018226624;0.0
41.355934;655.8686473369598;0.0
41.240619;658.2384786605835;0.0
41.387809;661.8882193565369;1.0
41.269683;664.9580013751984;0.0
41.102809;667.3378322124481;0.0
41.274372;670.0488369464874;0.0
41.394371;673.0186250209808;0.0
41.519996;675.4096686840057;0.0
41.391559;678.4797999858856;0.0
41.270622;681.2957653999329;0.0
41.099994;683.7307775020599;0.0
41.273433;686.4705810546875;0.0
41.393432;689.4315559864044;0.0
41.521869;691.8613831996918;0.0
41.391559;694.8723840713501;0.0
41.217182;697.6121473312378;0.0
41.08781;700.0520145893097;0.0
41.219058;703.2417876720428;0.0
41.343746;706.1215844154358;0.0
41.518119;708.5676033496857;0.0
41.340934;711.6147658824921;0.0
41.22187;714.0245943069458;0.0
41.350307;717.3443586826324;0.0
41.224685;720.395308971405;0.0
41.053119;722.8351356983185;0.0
41.239685;726.1260993480682;0.0
41.359683;728.5659277439117;0.0
41.235935;731.6357069015503;0.0
41.367183;734.6554927825928;0.0
41.542495;737.1353166103363;0.0
41.353122;740.0864038467407;0.0
41.224685;743.1873540878296;0.0
41.093433;745.7072060108185;0.0
41.237808;749.0969738960266;0.0
41.36906;752.2667481899261;0.0
41.50312;754.7965686321259;0.0
41.356872;758.1563301086426;0.0
41.231246;760.7027406692505;0.0
41.36156;763.9825081825256;0.0
41.224685;767.1122877597809;0.0
41.04187;769.6986210346222;0.0
41.236869;772.698413848877;0.0
41.369995;775.9225018024445;0.0
41.50687;778.4823203086853;0.0
41.358745;781.952073097229;1.0
41.223747;785.1818451881409;0.0
41.086872;787.7916584014893;0.0
41.235935;791.2326798439026;0.0
41.371871;794.5935895442963;0.0
41.512496;797.2433595657349;0.0
41.36156;800.5831634998322;0.0
41.224685;803.9429252147675;0.0
41.079372;806.6619520187378;0.0
41.226558;810.061710357666;0.0
41.364372;813.4514689445496;0.0
41.51062;816.1912746429443;0.0
41.363433;819.2310583591461;0.0
41.219058;822.7808060646057;0.0
41.077495;825.4417066574097;0.0
41.22562;828.7514715194702;0.0
41.369995;832.2712216377258;0.0
41.515308;834.992171049118;0.0
41.36531;838.4225027561188;0.0
41.22187;841.6722707748413;0.0
41.027809;844.3532593250275;0.0
41.234058;847.7630178928375;0.0
41.368122;850.4540016651154;0.0
41.22562;853.9745438098907;0.0
41.022182;856.7943434715271;0.0
41.22562;860.314092874527;0.0
41.368122;863.163890838623;0.0
41.223747;866.5536494255066;0.0
41.024997;869.3060917854309;0.0
41.237808;872.9058351516724;0.0
41.375621;875.6768045425415;0.0
41.230308;879.2478935718536;0.0
41.025932;882.1176557540894;0.0
41.232185;885.5987293720245;0.0
41.374683;888.4498970508575;0.0
41.230308;891.9596476554871;0.0
41.029682;894.7694478034973;0.0
41.246246;898.4508085250854;0.0
41.389682;901.3167848587036;0.0
41.235935;904.9965233802795;0.0
41.03062;907.8663191795349;0.0
