0.0;0.0;0.0
0.049687;0.7187352180480957;0.0
9.255937;4.197475433349609;0.0
9.6975;5.3743932247161865;0.0
10.482187;19.00494408607483;0.0
10.505624;19.518115282058716;0.0
10.560937;20.64955711364746;0.0
10.595624;21.30387830734253;0.0
10.744687;24.046183824539185;0.0
10.853437;25.645986080169678;0.0
10.875;26.20595073699951;0.0
11.027812;28.365696668624878;0.0
11.079375;29.44391679763794;0.0
12.151874;43.29837465286255;0.0
12.20625;44.489750385284424;0.0
12.268124;45.4844172000885;0.0
12.363749;47.416930198669434;0.0
12.511875;49.51460146903992;0.0
12.799687;54.97320079803467;0.0
12.861562;55.96978735923767;0.0
13.3125;64.4477608203888;1.0
13.219687;66.37564015388489;1.0
13.276874;67.65625357627869;1.0
13.198124;69.36379599571228;1.0
13.335937;72.15017795562744;1.0
13.238437;74.16540336608887;1.0
13.28625;75.29235219955444;1.0
13.206562;76.97440195083618;1.0
13.349061;79.81509757041931;1.0
13.095;84.68985986709595;1.0
13.235625;87.5064640045166;1.0
13.139061;89.50397443771362;1.0
13.197187;90.79803109169006;1.0
13.129687;92.26090407371521;1.0
13.271249;95.09330749511719;1.0
13.162499;97.31412982940674;1.0
13.196249;98.16133117675781;1.0
13.111874;99.93833351135254;1.0
13.248749;102.68160462379456;1.0
13.141875;104.8688690662384;1.0
13.165312;105.56414031982422;1.0
13.07625;107.43697500228882;1.0
13.225312;110.3788104057312;1.0
13.136249;112.25144457817078;1.0
13.185936;113.38488721847534;1.0
13.113749;114.94002842903137;1.0
