0.0;0.0;0.0
0.053437;0.7055492401123047;0.0
7.092187;1.7879564762115479;0.0
15.877499;5.123157978057861;0.0
15.969374;5.531499862670898;0.0
15.9825;5.951473712921143;0.0
16.00031;6.4027040004730225;0.0
16.009685;6.802679061889648;0.0
15.996562;7.232651710510254;0.0
15.986249;7.653818130493164;0.0
16.005935;8.093797206878662;0.0
17.067186;10.641301393508911;0.0
17.729061;22.168534994125366;0.0
17.75531;22.69961929321289;0.0
17.783435;23.380936861038208;0.0
18.219373;29.130882740020752;0.0
18.358123;31.89854598045349;1.0
18.274686;33.66610550880432;1.0
18.383436;35.89126467704773;1.0
18.34781;36.782580614089966;1.0
18.365623;37.29361891746521;0.0
18.395624;37.88490891456604;0.0
18.450935;39.03050446510315;0.0
18.475311;39.557899475097656;0.0
18.494998;40.10213661193848;0.0
18.515623;40.58028531074524;0.0
18.488435;41.14163112640381;0.0
18.344999;43.79518103599548;0.0
18.29531;44.62839961051941;0.0
18.274686;45.17177677154541;0.0
18.053436;48.204437017440796;0.0
18.022499;48.96674823760986;0.0
17.992498;49.54891538619995;0.0
17.921249;51.08237862586975;0.0
17.950311;51.85340237617493;1.0
17.930624;52.45455837249756;0.0
17.96906;53.3871808052063;1.0
17.948436;54.00714135169983;0.0
17.977499;54.759164571762085;1.0
17.954061;55.43207931518555;0.0
18.057186;57.54592275619507;1.0
18.03656;58.175883769989014;1.0
18.058122;58.82693552970886;0.0
18.02156;59.74113416671753;1.0
18.046873;60.427608489990234;0.0
18.02156;61.1387140750885;1.0
18.045936;61.80976986885071;0.0
18.015935;62.59098410606384;1.0
18.037498;63.230987548828125;0.0
18.011247;63.932156562805176;1.0
18.03656;64.67324495315552;0.0
18.009372;65.41194701194763;0.0
18.033748;66.0819046497345;0.0
18.009372;66.77292251586914;0.0
18.108749;68.85545682907104;1.0
17.977499;71.4926815032959;1.0
18.140623;74.70880389213562;1.0
18.016874;77.21304750442505;1.0
18.043123;77.91413044929504;0.0
18.013122;78.66521716117859;0.0
17.933435;80.21539449691772;0.0
17.893123;80.94155931472778;0.0
17.863122;81.69269275665283;0.0
17.834999;82.39400482177734;0.0
17.872497;83.13395881652832;0.0
18.120935;83.89832973480225;0.0
18.179998;85.10012316703796;0.0
18.291561;86.71686601638794;0.0
18.332811;87.67790842056274;0.0
18.382497;88.50912714004517;0.0
18.427497;89.60118055343628;1.0
18.397499;90.38495635986328;0.0
18.428436;91.18491315841675;0.0
18.397499;91.98593544960022;0.0
18.429372;92.79697704315186;0.0
18.280311;95.79106450080872;1.0
18.397499;98.18467879295349;1.0
18.293436;100.34141540527344;1.0
18.39656;102.47540068626404;1.0
18.279373;104.83679699897766;1.0
18.312185;105.67101550102234;0.0
18.278436;106.53232145309448;0.0
18.325311;107.57350873947144;0.0
18.40781;108.84474182128906;0.0
18.543748;111.35800194740295;0.0
18.597185;112.24794673919678;0.0
18.635623;113.15035367012024;0.0
18.683435;113.9814202785492;0.0
18.629999;114.859450340271;0.0
18.582185;115.82171845436096;0.0
18.276561;116.72275352478027;0.0
18.005622;121.51043224334717;0.0
17.692499;122.42186617851257;0.0
17.627811;123.71325063705444;0.0
17.56031;124.77127170562744;0.0
17.522811;125.70247292518616;0.0
17.568748;126.74346661567688;0.0
17.629686;127.71451354026794;0.0
17.680311;128.88547539710999;1.0
17.635311;129.89156985282898;0.0
17.573436;130.89081192016602;0.0
17.109373;139.03750324249268;0.0
16.996873;140.67125487327576;0.0
16.953748;141.64947509765625;0.0
16.89281;142.64051818847656;0.0
16.514999;149.29429626464844;0.0
16.265623;152.67860627174377;0.0
16.161561;154.6486587524414;0.0
16.027498;156.56230664253235;0.0
15.964687;157.83441638946533;0.0
15.266249;166.92184591293335;0.0
15.200624;168.312846660614;0.0
14.793749;173.711359500885;0.0
14.673749;176.09214043617249;0.0
14.570624;177.6156406402588;0.0
14.460937;179.82369899749756;0.0
14.392499;180.89792561531067;0.0
14.018437;187.9762396812439;1.0
14.063437;189.06689190864563;0.0
13.8;194.1204056739807;1.0
13.865624;195.55117177963257;1.0
13.746562;197.99473118782043;1.0
13.791562;199.0857298374176;0.0
13.730625;200.4325692653656;1.0
13.799062;201.91478562355042;1.0
13.5675;206.38713312149048;1.0
13.6575;208.27827954292297;1.0
13.559999;210.28935050964355;1.0
13.606874;211.41195511817932;0.0
13.554374;212.61295413970947;0.0
13.646249;214.52160024642944;1.0
13.568437;216.22001814842224;1.0
13.617187;217.35343980789185;0.0
13.555312;218.7138204574585;1.0
13.652812;220.76082706451416;1.0
13.578749;222.34422826766968;1.0
13.630311;223.5353970527649;1.0
13.574999;224.78239226341248;1.0
13.676249;226.89214158058167;1.0
13.584374;228.81447458267212;1.0
13.636875;230.01730918884277;0.0
13.585311;231.21136212348938;0.0
13.671562;233.02970719337463;1.0
13.592812;234.73595309257507;1.0
13.645312;235.9411747455597;0.0
13.586249;237.2534999847412;1.0
13.68375;239.29801154136658;1.0
13.605937;240.96080422401428;1.0
13.664999;242.28291392326355;0.0
13.609686;243.52552556991577;0.0
13.694062;245.29951739311218;1.0
