0.0;0.0;0.0
0.162188;0.722184419631958;0.0
21.437829;3.603862762451172;0.0
28.202867;5.66270899772644;0.0
29.085916;6.5638039112091064;0.0
29.435007;7.761963367462158;1.0
30.133188;15.529305219650269;1.0
30.115358;15.946065902709961;1.0
30.13788;16.40989899635315;1.0
30.120988;16.84257173538208;1.0
30.154771;17.418853282928467;1.0
30.129434;17.930527210235596;1.0
30.147264;18.342347383499146;1.0
30.134126;18.72232437133789;1.0
30.174478;19.384920120239258;1.0
30.16134;19.764905214309692;1.0
30.176355;20.14693260192871;1.0
30.159463;20.547992944717407;1.0
30.171663;20.91911292076111;1.0
30.148202;21.419094800949097;1.0
30.168848;21.880136966705322;1.0
30.154771;22.260112762451172;1.0
30.197938;22.98674178123474;1.0
30.162279;23.606688022613525;1.0
30.188554;24.109508752822876;1.0
30.104097;25.260456562042236;1.0
30.115358;25.62966299057007;1.0
30.07876;26.270933866500854;1.0
30.091897;26.650910139083862;1.0
30.064683;27.193390130996704;1.0
30.080636;27.580235719680786;1.0
30.039346;28.271555185317993;1.0
